<svg width="40" height="40" viewBox="0 0 40 40" fill="none" xmlns="http://www.w3.org/2000/svg">
<path fill-rule="evenodd" clip-rule="evenodd" d="M4.99978 34L4.99978 5.26343H10.2246L10.2246 34H4.99978Z" fill="white"/>
<path fill-rule="evenodd" clip-rule="evenodd" d="M21.9809 34V5.26343H23.2871L23.2871 34H21.9809Z" fill="white"/>
<path fill-rule="evenodd" clip-rule="evenodd" d="M10.225 5.26344L35.043 5.26344L35.043 7.87585L10.225 7.87585L10.225 5.26344Z" fill="white"/>
<path fill-rule="evenodd" clip-rule="evenodd" d="M14.1436 13.7537C14.1436 12.6716 14.9477 11.7944 15.9396 11.7944L26.7158 11.7944C27.7077 11.7944 28.5118 12.6716 28.5118 13.7537C28.5118 14.8358 27.7077 15.7131 26.7158 15.7131L15.9396 15.7131C14.9477 15.7131 14.1436 14.8358 14.1436 13.7537Z" fill="white"/>
<path fill-rule="evenodd" clip-rule="evenodd" d="M19.3682 21.591C19.3682 20.5089 20.2454 19.6317 21.3275 19.6317L33.0833 19.6317C34.1654 19.6317 35.0427 20.5089 35.0427 21.591C35.0427 22.6731 34.1654 23.5503 33.0833 23.5503L21.3275 23.5503C20.2454 23.5503 19.3682 22.6731 19.3682 21.591Z" fill="white"/>
<path fill-rule="evenodd" clip-rule="evenodd" d="M16.7559 28.122C16.7559 27.0399 17.56 26.1627 18.5519 26.1627L29.3281 26.1627C30.32 26.1627 31.1241 27.0399 31.1241 28.122C31.1241 29.2041 30.32 30.0813 29.3281 30.0813L18.5519 30.0813C17.56 30.0813 16.7559 29.2041 16.7559 28.122Z" fill="white"/>
</svg>
