<svg width="96" height="96" viewBox="0 0 96 96" fill="none" xmlns="http://www.w3.org/2000/svg">
<path fill-rule="evenodd" clip-rule="evenodd" d="M56 52V68H40V52H28L48 32L68 52M77.4 40.12C74.68 26.36 62.56 16 48 16C36.44 16 26.4 22.56 21.4 32.12C9.36 33.44 0 43.6 0 56C0 69.2548 10.7452 80 24 80H76C81.3043 80 86.3914 77.8929 90.1421 74.1421C93.8929 70.3914 96 65.3043 96 60C96 49.44 87.8 40.88 77.4 40.12Z" fill="#6C6F80"/>
</svg>
